…
``` r
uoe_art %>%
  count(artist) %>%
  arrange(desc(n))
```

    ## # A tibble: 1,104 x 2
    ##    artist               n
    ##    <chr>            <int>
    ##  1 Unknown            351
    ##  2 Emma Gillies       144
    ##  3 <NA>               113
    ##  4 John Bellany        20
    ##  5 Ann F Ward          19
    ##  6 Zygmunt Bukowski    17
    ##  7 Boris Bucan         16
    ##  8 Gordon Bryce        16
    ##  9 Marjorie Wallace    16
    ## 10 William Gillon      15
    ## # ... with 1,094 more rows
…
